{
    "44631": {"StationID": "11534", "name": "ABC - WTHM"},
    "127957": {"StationID": "113380", "name": "ABC News Live - ABCNL"},
    "1263880001": {"StationID": "111871", "name": "ACC Network - ACC"},
    "126388": {"StationID": "111871", "name": "ACC Network - ACC"},
    "104589": {"StationID": "120551", "name": "AccuWeather - ACUWTHH"},
    "139932": {"StationID": "125196", "name": "ACL Cornhole TV - CRNHOLE"},
    "123265": {"StationID": "109016", "name": "africanews - AFNEWS"},
    "44264": {"StationID": "65596", "name": "Altitude Sports - ALTSPRT"},
    "66322": {"StationID": "56256", "name": "Altitude Sports Overflow - ALTS2"},
    "90696": {"StationID": "18284", "name": "American Heroes Channel - AHCHD"},
    "67512": {"StationID": "57394", "name": "Animal Planet - APLHD"},
    "80124": {"StationID": "68785", "name": "Animal Planet - APLHDP"},
    "136322": {"StationID": "136199", "name": "Arizona Diamondbacks"},
    "141981": {"StationID": "127174", "name": "At Home with Family Handyman - ATHFHM"},
    "137849": {"StationID": "123156", "name": "AXS TV NOW - AXSTNST"},
    "88749": {"StationID": "76950", "name": "beIN SPORTS - BEIN1HD"},
    "105107": {"StationID": "92443", "name": "beIN SPORTS 4 - BEIN4"},
    "105103": {"StationID": "92439", "name": "beIN SPORTS 5 - BEIN5"},
    "105101": {"StationID": "92437", "name": "beIN SPORTS 6 - BEIN6"},
    "105102": {"StationID": "92438", "name": "beIN SPORTS 7 - BEIN7"},
    "105100": {"StationID": "92436", "name": "beIN SPORTS 8 - BEIN8"},
    "88754": {"StationID": "76943", "name": "beIN SPORTS En Espanol - BEIN2HD"},
    "127712": {"StationID": "120375", "name": "beIN SPORTS Xtra - BEINXTRA"},
    "134321": {"StationID": "119661", "name": "beIN SPORTS Xtra En Espanol - BEIXE"},
    "119429": {"StationID": "92442", "name": "beIN SPORTS 3 - BEINSP3"},
    "73973": {"StationID": "63236", "name": "BET - BETHD"},
    "75572": {"StationID": "64673", "name": "BET - BETHDP"},
    "73952": {"StationID": "63220", "name": "BET Her - BHERHD"},
    "71605": {"StationID": "58321", "name": "Big Ten Network - BTN"},
    "84686": {"StationID": "73115", "name": "Big Ten Network Alternate 2 - BTN2"},
    "94683": {"StationID": "82572", "name": "Big Ten Network Alternate 3 - BTN3"},
    "94684": {"StationID": "82573", "name": "Big Ten Network Alternate 4 - BTN4"},
    "135138": {"StationID": "120469", "name": "Billiard TV - BILSTR"},
    "138563": {"StationID": "123870", "name": "Bloomberg Originals - QUICKTK"},
    "83287": {"StationID": "71799", "name": "Bloomberg Television - BLOOM"},
    "832870001": {"StationID": "53168", "name": "Bloomberg Television - BLOOMBR"},
    "139931": {"StationID": "125195", "name": "Boxing TV - BOXING"},
    "68797": {"StationID": "58625", "name": "Bravo - BVO"},
    "85639": {"StationID": "73994", "name": "Bravo - BVOW"},
    "118793": {"StationID": "104846", "name": "CBS News - CBSN"},
    "69495": {"StationID": "59250", "name": "CBS Sports Network - CBSSN"},
    "114796": {"StationID": "107241", "name": "Cheddar News - CHEDDAR"},
    "130949": {"StationID": "116338", "name": "Circle Country - XCIRCLE"},
    "124684": {"StationID": "110289", "name": "CleoTV - CLEOHD"},
    "69697": {"StationID": "59440", "name": "CMT - CMTVHD"},
    "68971": {"StationID": "58780", "name": "CNBC - CNBC"},
    "73033": {"StationID": "62420", "name": "Comedy Central - CCHD"},
    "75486": {"StationID": "64599", "name": "Comedy Central - CCHDP"},
    "130049": {"StationID": "115447", "name": "Comedy Dynamics - COMCLN"},
    "110223": {"StationID": "97051", "name": "Comet - COMET"},
    "79312": {"StationID": "68065", "name": "Cooking Channel - COOKHD"},
    "135843": {"StationID": "121166", "name": "Crackle - CRACKLEHD"},
    "125430": {"StationID": "110951", "name": "Curiosity Channel - CSTREAM"},
    "120762": {"StationID": "112158", "name": "Dabl - DABLPHD"},
    "143350": {"StationID": "128542", "name": "Dark Matter - DMTV"},
    "70835": {"StationID": "60468", "name": "Destination America - DESTHD"},
    "67013": {"StationID": "56905", "name": "Discovery - DSCHD"},
    "92410": {"StationID": "80399", "name": "Discovery - DSCHDP"},
    "78969": {"StationID": "67749", "name": "Discovery Family Channel - DFCHD"},
    "104830": {"StationID": "92204", "name": "Discovery Life - DLCHD"},
    "10171": {"StationID": "59684", "name": "Disney Channel - DISN"},
    "74063": {"StationID": "63320", "name": "Disney Channel - DISNHDP"},
    "86580": {"StationID": "74885", "name": "Disney Junior - DJCHHD"},
    "86703": {"StationID": "75004", "name": "Disney Junior - DJCHHDP"},
    "70322": {"StationID": "60006", "name": "Disney XD - DXDHD"},
    "74065": {"StationID": "63322", "name": "Disney XD - DXDHDP"},
    "124902": {"StationID": "110480", "name": "Dove Channel - DOVESTR"},
    "127430": {"StationID": "112881", "name": "DUST - DUST"},
    "72360": {"StationID": "61812", "name": "E! - EE"},
    "104147": {"StationID": "91579", "name": "E! - EW"},
    "10179": {"StationID": "32645", "name": "ESPN - ESPN"},
    "83407": {"StationID": "71914", "name": "ESPN Deportes - ESPNDHD"},
    "71094": {"StationID": "60696", "name": "ESPN U - ESPNUHD"},
    "12444": {"StationID": "45507", "name": "ESPN2 - ESPN2"},
    "16485": {"StationID": "59976", "name": "ESPNEWS - ESPNEWS"},
    "76019": {"StationID": "65064", "name": "ESTRELLA - ESTRLLA"},
    "135881": {"StationID": "133321", "name": "Fail Army - FLARMY"},
    "50791": {"StationID": "50747", "name": "Food Network - FOODHD"},
    "94206": {"StationID": "82119", "name": "Food Network - FOODPHD"},
    "10422": {"StationID": "21319", "name": "FOX - KDVR"},
    "111886": {"StationID": "98443", "name": "FOX - KRQEDT2"},
    "123918": {"StationID": "111003", "name": "FOX 4K - FOX4K"},
    "68900": {"StationID": "58718", "name": "FOX Business Network - FBNHD"},
    "133875": {"StationID": "119219", "name": "FOX LiveNOW - LIVENOW"},
    "70522": {"StationID": "60179", "name": "FOX News Channel - FNCHD"},
    "77985": {"StationID": "66880", "name": "Fox Soccer Plus - FSCPLHD"},
    "133868": {"StationID": "119212", "name": "FOX Soul - FOXSOUL"},
    "94653": {"StationID": "82547", "name": "FOX Sports 1 - FS1"},
    "69553": {"StationID": "59305", "name": "FOX Sports 2 - FS2"},
    "135986": {"StationID": "121307", "name": "FOX Weather - FWX"},
    "69896": {"StationID": "59615", "name": "Freeform - FREFMHD"},
    "74067": {"StationID": "63324", "name": "Freeform - FRFMHDP"},
    "123917": {"StationID": "109605", "name": "FS1 4K - FS14K"},
    "131921": {"StationID": "117288", "name": "Fubo Latino Network - FUBOLN"},
    "131622": {"StationID": "116999", "name": "fubo Movie Network - FMOVTV"},
    "1238521113": {"StationID": "", "name": "Fubo Radio 1 - Hits Radio"},
    "1238521122": {"StationID": "", "name": "Fubo Radio 10 - The Holidays"},
    "1238521114": {"StationID": "", "name": "Fubo Radio 2 - Hip-Hop One"},
    "1238521115": {"StationID": "", "name": "Fubo Radio 3 - Top Country"},
    "1238521116": {"StationID": "", "name": "Fubo Radio 4 - Classic Rock"},
    "1238521117": {"StationID": "", "name": "Fubo Radio 5 - Dinner Party"},
    "1238521118": {"StationID": "", "name": "Fubo Radio 6 - Coffee Time"},
    "1238521119": {"StationID": "", "name": "Fubo Radio 7 - Exitos Latinos"},
    "1238521120": {"StationID": "", "name": "Fubo Radio 8 - The 80s"},
    "1238521121": {"StationID": "", "name": "Fubo Radio 9 - 90s Alternative"},
    "120123": {"StationID": "106100", "name": "fubo Sports Network - FNETTV"},
    "1238520002": {"StationID": "125447", "name": "fubo Sports Network 2 - FNETTV2"},
    "1238520004": {"StationID": "125466", "name": "fubo Sports Network 3 - FNETTV3"},
    "1238520014": {"StationID": "125457", "name": "fubo Sports Network 4 - FNETTV4"},
    "1238520015": {"StationID": "125465", "name": "fubo Sports Network 5 - FNETTV5"},
    "1238520018": {"StationID": "125453", "name": "fubo Sports Network 6 - FNETTV6"},
    "1238520019": {"StationID": "125450", "name": "fubo Sports Network 7 - FNETTV7"},
    "1238520112": {"StationID": "125452", "name": "fubo Sports Network 9 - FNETTV9"},
    "139008": {"StationID": "124313", "name": "FUEL TV - FUELFUB"},
    "68746": {"StationID": "58574", "name": "FX - FXHD"},
    "70111": {"StationID": "59814", "name": "FX - FXPHD"},
    "81675": {"StationID": "70253", "name": "FXM - FXMHD"},
    "77475": {"StationID": "66379", "name": "FXX - FXXHD"},
    "94682": {"StationID": "82571", "name": "FXX - FXXPHD"},
    "79698": {"StationID": "68367", "name": "Galavision - GALAHD"},
    "108539": {"StationID": "89098", "name": "GAME+ - FNTSYUH"},
    "94674": {"StationID": "82563", "name": "getTV - GETTV"},
    "103351": {"StationID": "90858", "name": "Great American Faith & Living - GACLHD"},
    "95030": {"StationID": "82892", "name": "Great American Family - GAC"},
    "80167": {"StationID": "68827", "name": "GSN - GSNHD"},
    "125634": {"StationID": "111140", "name": "Gusto - GUSTOTV"},
    "77355": {"StationID": "66268", "name": "Hallmark Channel - HALLHD"},
    "119725": {"StationID": "105723", "name": "Hallmark Drama - HALLDR"},
    "46730": {"StationID": "46710", "name": "Hallmark Movies & Mysteries - HMMHD"},
    "49830": {"StationID": "49788", "name": "HGTV - HGTVD"},
    "99621": {"StationID": "87317", "name": "HGTV - HGTVPHD"},
    "134964": {"StationID": "105893", "name": "Horse & Country - HORACOU", "TimeShift": "-2"},
    "116116": {"StationID": "102309", "name": "i24NEWS - I24NEHD"},
    "136673": {"StationID": "121991", "name": "IMPACT! Wrestling - IMPACTW"},
    "144256": {"StationID": "129479", "name": "INFAST - INFAST"},
    "11066": {"StationID": "82773", "name": "INSP - INSP"},
    "76327": {"StationID": "65342", "name": "Investigation Discovery - IDHD"},
    "144254": {"StationID": "112796", "name": "INWONDER - INSIWON"},
    "18633": {"StationID": "122912", "name": "ION - ION"},
    "133890": {"StationID": "119234", "name": "Judge Nosey - RLNOSEY"},
    "90742": {"StationID": "78850", "name": "Justice Central - JUST"},
    "131621": {"StationID": "116998", "name": "Lacrosse Sports Network - LSN"},
    "113594": {"StationID": "99988", "name": "Local Now - LOCALNOW"},
    "133606": {"StationID": "118952", "name": "Localish - LOCALSH"},
    "110114": {"StationID": "96971", "name": "Logo - LOGOHD"},
    "134814": {"StationID": "119209", "name": "Magellan - MAGUTC1"},
    "78575": {"StationID": "67375", "name": "Magnolia Network - DIYHD"},
    "1283550001": {"StationID": "113768", "name": "Marquee Sports Network - MARQN"},
    "76716": {"StationID": "65687", "name": "MGM+ - EPIXHD"},
    "79162": {"StationID": "67929", "name": "MGM+ Hits - EPIX2HD"},
    "85722": {"StationID": "74073", "name": "MGM+ Marquee - EPIXHIT"},
    "72650": {"StationID": "62081", "name": "MLB Network - MLBHD"},
    "86927": {"StationID": "75220", "name": "MLB Strikezone - MLBNSZ"},
    "81130": {"StationID": "69734", "name": "Monumental Sports Network 2 - MNMT2HD"},
    "139933": {"StationID": "125197", "name": "MotoAmerica TV - MOTO"},
    "75083": {"StationID": "64241", "name": "MSNBC - MSNBC"},
    "71401": {"StationID": "60964", "name": "MTV - MTVHD"},
    "75524": {"StationID": "64630", "name": "MTV - MTVPHD"},
    "104879": {"StationID": "22561", "name": "MTV Classic - MTVCLHD"},
    "49175": {"StationID": "49141", "name": "MTV Live - MTVLIVE"},
    "86781": {"StationID": "75077", "name": "MTV2 - MTV2HD"},
    "44229": {"StationID": "44228", "name": "MTVU - MTVU"},
    "49472": {"StationID": "49438", "name": "National Geographic - NGCHD"},
    "83074": {"StationID": "71601", "name": "National Geographic - NGCPHD"},
    "78529": {"StationID": "67331", "name": "National Geographic Wild - NGWIHD"},
    "45537": {"StationID": "45526", "name": "NBA TV - NBATV"},
    "21298": {"StationID": "91638", "name": "NBC - KUSA"},
    "128770": {"StationID": "114174", "name": "NBC News NOW - NBCNN"},
    "123916": {"StationID": "117038", "name": "NBC Sports 4K - FNBCS4K"},
    "73858": {"StationID": "63138", "name": "NBC Sports Bay Area - NBCSBAH"},
    "114968": {"StationID": "101261", "name": "NBC Sports Bay Area Plus - NBSBA2H"},
    "45551": {"StationID": "45540", "name": "NBC Sports California - NBSCAHD"},
    "107332": {"StationID": "92393", "name": "NBC Sports California Plus - NBCSCAH"},
    "125380": {"StationID": "110904", "name": "NBC Sports California Plus 3 - NBCSCX3"},
    "109261": {"StationID": "17596", "name": "NBC Sports Philadelphia - NBCSPA"},
    "101207": {"StationID": "88829", "name": "NBC Sports Philadelphia Plus - NBSPPHD"},
    "104468": {"StationID": "102959", "name": "NBC Universo - UNIV"},
    "104156": {"StationID": "91588", "name": "NBC Universo - UNIVE"},
    "128875": {"StationID": "114278", "name": "NBCLX - LX"},
    "131568": {"StationID": "116946", "name": "News 12 New York - N12NY"},
    "103625": {"StationID": "91096", "name": "NewsNation - WGNA"},
    "124843": {"StationID": "110428", "name": "NewsNet - NEWSNT"},
    "99285": {"StationID": "87000", "name": "Next Level Sports - OWSPNHD"},
    "45409": {"StationID": "45399", "name": "NFL Network - NFLHD"},
    "75963": {"StationID": "65025", "name": "NFL RedZone - NFLNRZD"},
    "68871": {"StationID": "58690", "name": "NHL Network - NHLNET"},
    "99645": {"StationID": "87339", "name": "Nick Jr. - NICJPHD"},
    "94767": {"StationID": "82649", "name": "Nick Jr. - NICJRHD"},
    "69687": {"StationID": "59432", "name": "Nickelodeon - NIKHD"},
    "75478": {"StationID": "64591", "name": "Nickelodeon - NIKPHD"},
    "30420": {"StationID": "82654", "name": "Nicktoons - NIKTON"},
    "133889": {"StationID": "119233", "name": "Nosey - NOSEY"},
    "139513": {"StationID": "124817", "name": "Origin Sports Network - ORIG"},
    "128911": {"StationID": "68295", "name": "Outside - OTVSTR"},
    "81808": {"StationID": "70388", "name": "OWN - OWNHD"},
    "81949": {"StationID": "70522", "name": "Oxygen True Crime - OXG"},
    "85680": {"StationID": "74032", "name": "Oxygen True Crime - OXGW"},
    "881660001": {"StationID": "76376", "name": "Pac-12 Arizona - P12AZHD"},
    "881670001": {"StationID": "76377", "name": "Pac-12 Bay Area - P12BAHD"},
    "139952": {"StationID": "125214", "name": "Pac-12 Insider - P12I"},
    "881710001": {"StationID": "76381", "name": "Pac-12 Los Angeles - P12LAHD"},
    "88170": {"StationID": "76380", "name": "Pac-12 Mountain - P12MTHD"},
    "881700001": {"StationID": "76380", "name": "Pac-12 Mountain - P12MTHD"},
    "88172": {"StationID": "76382", "name": "Pac-12 Network - PAC12HD"},
    "881680001": {"StationID": "76378", "name": "Pac-12 Oregon - P12ORHD"},
    "881690001": {"StationID": "76379", "name": "Pac-12 Washington - P12WAHD"},
    "69429": {"StationID": "59186", "name": "Paramount Network - PARHD"},
    "137212": {"StationID": "122524", "name": "People Are Awesome - PAAFRUS"},
    "138963": {"StationID": "124268", "name": "PokerGO - PKGFAST"},
    "80136": {"StationID": "68796", "name": "POP - POP"},
    "135844": {"StationID": "121167", "name": "Popcornflix - POPCORNFLIXHD"},
    "70566": {"StationID": "60222", "name": "QVC - QVCHD"},
    "139326": {"StationID": "124630", "name": "Racing America - RA"},
    "135874": {"StationID": "121197", "name": "Real Madrid TV - RMADUSHD"},
    "134013": {"StationID": "119355", "name": "RetroCrush - RRCRUSH"},
    "128187": {"StationID": "113603", "name": "Revry - REVRY"},
    "130712": {"StationID": "116102", "name": "Revry News - RVRYNWS"},
    "76835": {"StationID": "11063", "name": "ROOT Sports Northwest (Alt.) - RTN1"},
    "71543": {"StationID": "61090", "name": "ROOT Sports Northwest - RTNWHD"},
    "136101": {"StationID": "121422", "name": "ROOT Sports Northwest PLUS - RTNW3"},
    "136288": {"StationID": "136227", "name": "San Diego Padres"},
    "67508": {"StationID": "57390", "name": "Science - SCIHD"},
    "120010": {"StationID": "96827", "name": "Scripps News - NEWSYST"},
    "1021370001": {"StationID": "89714", "name": "SEC Network - SECH"},
    "68703": {"StationID": "58532", "name": "Smithsonian Channel - SMITH_HD"},
    "94823": {"StationID": "82695", "name": "Smithsonian Channel - SMITHP_HD"},
    "80496": {"StationID": "69091", "name": "Sony Movie Channel - SONYHD"},
    "127275": {"StationID": "112732", "name": "Sportsgrid - SPOGRID"},
    "49925": {"StationID": "49882", "name": "SportsNet Pittsburgh - SNPTHD"},
    "143989": {"StationID": "129212", "name": "SportStak - SPRTSTK"},
    "118905": {"StationID": "104950", "name": "Stadium - STADIUM"},
    "109524": {"StationID": "96469", "name": "Stadium 1 - STAD1"},
    "109621": {"StationID": "96550", "name": "Stadium 2 - STAD2"},
    "109622": {"StationID": "96551", "name": "Stadium 3 - STAD3"},
    "122695": {"StationID": "109454", "name": "Start TV - STRTD"},
    "137124": {"StationID": "122436", "name": "Swerve Combat - SWSPRTS"},
    "68795": {"StationID": "58623", "name": "SYFY - SYFY"},
    "76634": {"StationID": "65626", "name": "SYFY - SYFYW"},
    "121191": {"StationID": "107076", "name": "Tastemade - TASTE"},
    "139922": {"StationID": "125187", "name": "Tastemade Home - TMHOME"},
    "135019": {"StationID": "120351", "name": "Tastemade Travel - TMTRAVEL"},
    "110217": {"StationID": "97047", "name": "TeenNick - TNCKHD"},
    "54539": {"StationID": "54424", "name": "Telemundo - KDEN"},
    "70668": {"StationID": "60316", "name": "Tennis Channel - TENISHD"},
    "141477": {"StationID": "126670", "name": "TG Jr - TGJR"},
    "143912": {"StationID": "129135", "name": "The Big Dish - BIGDISH"},
    "129089": {"StationID": "114491", "name": "The Bob Ross Channel - TBRCSTR"},
    "132722": {"StationID": "118087", "name": "The Design Network - TDN"},
    "104213": {"StationID": "91640", "name": "The Fight Network - FNHD"},
    "72411": {"StationID": "61854", "name": "The Golf Channel - GLFC"},
    "135842": {"StationID": "110356", "name": "The Pet Collective - PETCOLL"},
    "69008": {"StationID": "58812", "name": "The Weather Channel - WEATHHD"},
    "121623": {"StationID": "107478", "name": "The Young Turks - TYT"},
    "137369": {"StationID": "122679", "name": "Ticker NEWS - TICKER"},
    "67509": {"StationID": "57391", "name": "TLC - TLCHD"},
    "91887": {"StationID": "79911", "name": "TLC - TLCPHD"},
    "141441": {"StationID": "126634", "name": "Toon Goggles - TG"},
    "69551": {"StationID": "59303", "name": "Travel Channel - TRAVHD"},
    "75410": {"StationID": "50000", "name": "Travel Channel - TRAVPHD"},
    "88839": {"StationID": "77033", "name": "TUDN - UDNHD"},
    "126876": {"StationID": "112349", "name": "TUDNxtra 1 - TUDNX1"},
    "126889": {"StationID": "112362", "name": "TUDNxtra 10 - TUDNX10"},
    "126890": {"StationID": "112363", "name": "TUDNxtra 11 - TUDNX11"},
    "126878": {"StationID": "112351", "name": "TUDNxtra 2 - TUDNX2"},
    "126879": {"StationID": "112352", "name": "TUDNxtra 3 - TUDNX3"},
    "126881": {"StationID": "112354", "name": "TUDNxtra 4 - TUDNX4"},
    "126882": {"StationID": "112355", "name": "TUDNxtra 5 - TUDNX5"},
    "126883": {"StationID": "112356", "name": "TUDNxtra 6 - TUDNX6"},
    "126884": {"StationID": "112357", "name": "TUDNxtra 7 - TUDNX7"},
    "126885": {"StationID": "112358", "name": "TUDNxtra 8 - TUDNX8"},
    "126888": {"StationID": "112361", "name": "TUDNxtra 9 - TUDNX9"},
    "85788": {"StationID": "26046", "name": "TV Land - TVLDPHD"},
    "85147": {"StationID": "73541", "name": "TV Land - TVLNDHD"},
    "105592": {"StationID": "62043", "name": "TyC Sports International - TYCINTL"},
    "143825": {"StationID": "129048", "name": "UNBEATEN - UNBEATEN"},
    "87146": {"StationID": "32697", "name": "UniMas - KELVLP"},
    "855130001": {"StationID": "73882", "name": "UniMas - UNIMHD"},
    "81646": {"StationID": "70225", "name": "Universal Kids - SPR"},
    "74568": {"StationID": "63776", "name": "Univision - KLUZDT"},
    "792940001": {"StationID": "68049", "name": "Univision - UNIHD"},
    "68602": {"StationID": "58452", "name": "USA Network - USAN"},
    "85678": {"StationID": "74030", "name": "USA Network - USANW"},
    "556490001": {"StationID": "100592", "name": "Vegas Golden Knights"},
    "70365": {"StationID": "60046", "name": "VH1 - VH1HD"},
    "75529": {"StationID": "64634", "name": "VH1 - VH1PHD"},
    "141948": {"StationID": "127141", "name": "WeatherSpy - WTHRSPY"},
    "139332": {"StationID": "124636", "name": "Women's Sports Network - WSN"},
    "138625": {"StationID": "125051", "name": "World Poker Tour - WPTAMA"},
    "126463": {"StationID": "111945", "name": "Zona Futbol - ZONFUT"},
    "127032": {"StationID": "112496", "name": "INTROUBLE - INSITRO"},
    "74861": {"StationID": "64046", "name": "World Fishing Network - WFNUSHD"},
    "77398": {"StationID": "66310", "name": "The Sportsman Channel - SPMNHD"},
    "71484": {"StationID": "61036", "name": "MAV TV - MAVTVHD"},
    "136103": {"StationID": "121424", "name": "Waypoint TV - WYPOINT"},
    "128846": {"StationID": "55597", "name": "NBA League Pass 1 HD - TMHD1"},
    "128831": {"StationID": "72809", "name": "NBA League Pass 2 HD - TMHD2"},
    "128833": {"StationID": "72831", "name": "NBA League Pass 3 HD - TMHD3"},
    "128835": {"StationID": "72832", "name": "NBA League Pass 4 HD - TMHD4"},
    "128836": {"StationID": "72833", "name": "NBA League Pass 5 HD - TMHD5"},
    "128839": {"StationID": "72831", "name": "NBA League Pass 6 HD - TMHD6"},
    "128840": {"StationID": "72835", "name": "NBA League Pass 7 HD - TMHD7"},
    "128842": {"StationID": "72836", "name": "NBA League Pass 8 HD - TMHD8"},
    "128844": {"StationID": "72837", "name": "NBA League Pass 9 HD - TMHD9"},
    "128845": {"StationID": "102709", "name": "NBA League Pass 10 HD - TMHD10"}    
}